^C:\USERS\PC\DESKTOP\HEPSI\YAPAY-SINIR-AGI-ARTIFICIAL-NEURAL-NETWORK-LINEER-REGRESYON\SOURCE\YSA\PROJECT3\YAPAY-SINIR-AGI-ARTIFICIAL-NEURAL-NETWORK-LINEER-REGRESYON\PROJECT3\MYFORM.CPP
C:\PROGRAM FILES (X86)\MICROSOFT VISUAL STUDIO\2017\COMMUNITY\VC\TOOLS\MSVC\14.15.26726\BIN\HOSTX86\X86\1033\CLUI.DLL
C:\WINDOWS\GLOBALIZATION\SORTING\SORTDEFAULT.NLS
C:\WINDOWS\MICROSOFT.NET\FRAMEWORK\V2.0.50727\MSCORWKS.DLL
C:\WINDOWS\MICROSOFT.NET\FRAMEWORK\V4.0.30319\CLR.DLL
C:\PROGRAM FILES (X86)\MICROSOFT VISUAL STUDIO\2017\COMMUNITY\VC\TOOLS\MSVC\14.15.26726\BIN\HOSTX86\X86\CL.EXE.CONFIG
C:\WINDOWS\SYSTEM32\TZRES.DLL
C:\Users\pc\Desktop\hepsi\yapay-sinir-agi-artificial-neural-network-lineer-regresyon\source\YSA\Project3\yapay-sinir-agi-artificial-neural-network-lineer-regresyon\Project3\Debug\Project3.tlog\SYSTEM.DATA.DLL.metagen
C:\Users\pc\Desktop\hepsi\yapay-sinir-agi-artificial-neural-network-lineer-regresyon\source\YSA\Project3\yapay-sinir-agi-artificial-neural-network-lineer-regresyon\Project3\Debug\Project3.tlog\SYSTEM.DLL.metagen
C:\Users\pc\Desktop\hepsi\yapay-sinir-agi-artificial-neural-network-lineer-regresyon\source\YSA\Project3\yapay-sinir-agi-artificial-neural-network-lineer-regresyon\Project3\Debug\Project3.tlog\SYSTEM.DRAWING.DLL.metagen
C:\Users\pc\Desktop\hepsi\yapay-sinir-agi-artificial-neural-network-lineer-regresyon\source\YSA\Project3\yapay-sinir-agi-artificial-neural-network-lineer-regresyon\Project3\Debug\Project3.tlog\SYSTEM.WINDOWS.FORMS.DLL.metagen
C:\Users\pc\Desktop\hepsi\yapay-sinir-agi-artificial-neural-network-lineer-regresyon\source\YSA\Project3\yapay-sinir-agi-artificial-neural-network-lineer-regresyon\Project3\Debug\Project3.tlog\SYSTEM.XML.DLL.metagen
C:\USERS\PC\DESKTOP\HEPSI\YAPAY-SINIR-AGI-ARTIFICIAL-NEURAL-NETWORK-LINEER-REGRESYON\SOURCE\YSA\PROJECT3\YAPAY-SINIR-AGI-ARTIFICIAL-NEURAL-NETWORK-LINEER-REGRESYON\PROJECT3\MYFORM.H
C:\PROGRAM FILES (X86)\WINDOWS KITS\10\INCLUDE\10.0.17134.0\UCRT\TIME.H
C:\PROGRAM FILES (X86)\WINDOWS KITS\10\INCLUDE\10.0.17134.0\UCRT\CORECRT.H
C:\PROGRAM FILES (X86)\MICROSOFT VISUAL STUDIO\2017\COMMUNITY\VC\TOOLS\MSVC\14.15.26726\INCLUDE\VCRUNTIME.H
C:\PROGRAM FILES (X86)\MICROSOFT VISUAL STUDIO\2017\COMMUNITY\VC\TOOLS\MSVC\14.15.26726\INCLUDE\SAL.H
C:\PROGRAM FILES (X86)\MICROSOFT VISUAL STUDIO\2017\COMMUNITY\VC\TOOLS\MSVC\14.15.26726\INCLUDE\CONCURRENCYSAL.H
C:\PROGRAM FILES (X86)\MICROSOFT VISUAL STUDIO\2017\COMMUNITY\VC\TOOLS\MSVC\14.15.26726\INCLUDE\VADEFS.H
C:\PROGRAM FILES (X86)\WINDOWS KITS\10\INCLUDE\10.0.17134.0\UCRT\CORECRT_WTIME.H
C:\PROGRAM FILES (X86)\MICROSOFT VISUAL STUDIO\2017\COMMUNITY\VC\TOOLS\MSVC\14.15.26726\INCLUDE\CMATH
C:\PROGRAM FILES (X86)\MICROSOFT VISUAL STUDIO\2017\COMMUNITY\VC\TOOLS\MSVC\14.15.26726\INCLUDE\YVALS.H
C:\PROGRAM FILES (X86)\MICROSOFT VISUAL STUDIO\2017\COMMUNITY\VC\TOOLS\MSVC\14.15.26726\INCLUDE\YVALS_CORE.H
C:\PROGRAM FILES (X86)\MICROSOFT VISUAL STUDIO\2017\COMMUNITY\VC\TOOLS\MSVC\14.15.26726\INCLUDE\XKEYCHECK.H
C:\PROGRAM FILES (X86)\MICROSOFT VISUAL STUDIO\2017\COMMUNITY\VC\TOOLS\MSVC\14.15.26726\INCLUDE\CRTDEFS.H
C:\PROGRAM FILES (X86)\WINDOWS KITS\10\INCLUDE\10.0.17134.0\UCRT\CRTDBG.H
C:\PROGRAM FILES (X86)\MICROSOFT VISUAL STUDIO\2017\COMMUNITY\VC\TOOLS\MSVC\14.15.26726\INCLUDE\VCRUNTIME_NEW_DEBUG.H
C:\PROGRAM FILES (X86)\MICROSOFT VISUAL STUDIO\2017\COMMUNITY\VC\TOOLS\MSVC\14.15.26726\INCLUDE\VCRUNTIME_NEW.H
C:\PROGRAM FILES (X86)\MICROSOFT VISUAL STUDIO\2017\COMMUNITY\VC\TOOLS\MSVC\14.15.26726\INCLUDE\USE_ANSI.H
C:\PROGRAM FILES (X86)\MICROSOFT VISUAL STUDIO\2017\COMMUNITY\VC\TOOLS\MSVC\14.15.26726\INCLUDE\CSTDLIB
C:\PROGRAM FILES (X86)\WINDOWS KITS\10\INCLUDE\10.0.17134.0\UCRT\STDLIB.H
C:\PROGRAM FILES (X86)\WINDOWS KITS\10\INCLUDE\10.0.17134.0\UCRT\CORECRT_MALLOC.H
C:\PROGRAM FILES (X86)\WINDOWS KITS\10\INCLUDE\10.0.17134.0\UCRT\CORECRT_SEARCH.H
C:\PROGRAM FILES (X86)\WINDOWS KITS\10\INCLUDE\10.0.17134.0\UCRT\STDDEF.H
C:\PROGRAM FILES (X86)\WINDOWS KITS\10\INCLUDE\10.0.17134.0\UCRT\CORECRT_WSTDLIB.H
C:\PROGRAM FILES (X86)\MICROSOFT VISUAL STUDIO\2017\COMMUNITY\VC\TOOLS\MSVC\14.15.26726\INCLUDE\LIMITS.H
C:\PROGRAM FILES (X86)\WINDOWS KITS\10\INCLUDE\10.0.17134.0\UCRT\MATH.H
C:\PROGRAM FILES (X86)\WINDOWS KITS\10\INCLUDE\10.0.17134.0\UCRT\CORECRT_MATH.H
C:\PROGRAM FILES (X86)\MICROSOFT VISUAL STUDIO\2017\COMMUNITY\VC\TOOLS\MSVC\14.15.26726\INCLUDE\XTGMATH.H
C:\PROGRAM FILES (X86)\MICROSOFT VISUAL STUDIO\2017\COMMUNITY\VC\TOOLS\MSVC\14.15.26726\INCLUDE\XTR1COMMON
C:\Users\pc\Desktop\hepsi\yapay-sinir-agi-artificial-neural-network-lineer-regresyon\source\YSA\Project3\yapay-sinir-agi-artificial-neural-network-lineer-regresyon\Project3\Debug\Project3.tlog\MSCORLIB.DLL.metagen
^C:\USERS\PC\APPDATA\LOCAL\TEMP\.NETFRAMEWORK,VERSION=V4.6.1.ASSEMBLYATTRIBUTES.CPP
C:\PROGRAM FILES (X86)\MICROSOFT VISUAL STUDIO\2017\COMMUNITY\VC\TOOLS\MSVC\14.15.26726\BIN\HOSTX86\X86\1033\CLUI.DLL
C:\WINDOWS\GLOBALIZATION\SORTING\SORTDEFAULT.NLS
C:\WINDOWS\MICROSOFT.NET\FRAMEWORK\V2.0.50727\MSCORWKS.DLL
C:\WINDOWS\MICROSOFT.NET\FRAMEWORK\V4.0.30319\CLR.DLL
C:\PROGRAM FILES (X86)\MICROSOFT VISUAL STUDIO\2017\COMMUNITY\VC\TOOLS\MSVC\14.15.26726\BIN\HOSTX86\X86\CL.EXE.CONFIG
C:\WINDOWS\SYSTEM32\TZRES.DLL
C:\WINDOWS\MICROSOFT.NET\FRAMEWORK\V4.0.30319\MSCORLIB.DLL
